{
	"schemaVersion": 2,
	"mediaType": "application/vnd.docker.distribution.manifest.v2+json",
	"config": {
		"mediaType": "application/vnd.docker.container.image.v1+json",
		"size": 5467,
		"digest": "sha256:901414995ecde2f253daa546c70e3e4ebb8ad4c6aec5ff63490c9923a436f801"
	},
	"layers": [
		{
			"mediaType": "application/vnd.docker.image.rootfs.diff.tar.gzip",
			"size": 45344292,
			"digest": "sha256:741437d97401b83849ccbfe4ed8964049b752081647d7f1ea8aea29d989f8968"
		},
		{
			"mediaType": "application/vnd.docker.image.rootfs.diff.tar.gzip",
			"size": 10781099,
			"digest": "sha256:34d8874714d74b636739b8a52204650a664fca8ff9741dd66810f30196f103e2"
		},
		{
			"mediaType": "application/vnd.docker.image.rootfs.diff.tar.gzip",
			"size": 4340044,
			"digest": "sha256:0a108aa2667933b852b8d003f97b344d014fcd7e06a0c0e6e04f2d6906738388"
		},
		{
			"mediaType": "application/vnd.docker.image.rootfs.diff.tar.gzip",
			"size": 50063121,
			"digest": "sha256:7f0334c36886bd4619e8d05ccf68003e53b0b6098b2166a216bd009dba678ed8"
		},
		{
			"mediaType": "application/vnd.docker.image.rootfs.diff.tar.gzip",
			"size": 57618439,
			"digest": "sha256:d35724ed4672cc1ac62dca685634f02297e306fd1920dd76996799c00b728cbb"
		},
		{
			"mediaType": "application/vnd.docker.image.rootfs.diff.tar.gzip",
			"size": 140128756,
			"digest": "sha256:e75ac00960df6789e4c4bad88e22adfcb4eb3d775587000496b0f4aab8e1f75c"
		},
		{
			"mediaType": "application/vnd.docker.image.rootfs.diff.tar.gzip",
			"size": 126,
			"digest": "sha256:08686fc4280e52a97b3a9ac235f1f897af18e7679e0fb15b055c5c3cdb7c6f13"
		}
	]
}
